C:\Proyectos\nexus tecnologia\kaz_prs_backend\nexos-system\nexos-system-common\src\main\java\com\nexos\software\system\exception\package-info.java
C:\Proyectos\nexus tecnologia\kaz_prs_backend\nexos-system\nexos-system-common\src\main\java\com\nexos\software\system\model\package-info.java
C:\Proyectos\nexus tecnologia\kaz_prs_backend\nexos-system\nexos-system-common\src\main\java\com\nexos\software\system\util\package-info.java
C:\Proyectos\nexus tecnologia\kaz_prs_backend\nexos-system\nexos-system-common\src\main\java\com\nexos\software\system\model\GenericRs.java
C:\Proyectos\nexus tecnologia\kaz_prs_backend\nexos-system\nexos-system-common\src\main\java\com\nexos\software\system\annotation\package-info.java
C:\Proyectos\nexus tecnologia\kaz_prs_backend\nexos-system\nexos-system-common\src\main\java\com\nexos\software\system\model\Validacion.java
C:\Proyectos\nexus tecnologia\kaz_prs_backend\nexos-system\nexos-system-common\src\main\java\com\nexos\software\system\util\SecurityUtil.java
C:\Proyectos\nexus tecnologia\kaz_prs_backend\nexos-system\nexos-system-common\src\main\java\com\nexos\software\system\model\LogErroresDto.java
C:\Proyectos\nexus tecnologia\kaz_prs_backend\nexos-system\nexos-system-common\src\main\java\com\nexos\software\system\annotation\Permiso.java
C:\Proyectos\nexus tecnologia\kaz_prs_backend\nexos-system\nexos-system-common\src\main\java\com\nexos\software\system\util\UuidProvider.java
C:\Proyectos\nexus tecnologia\kaz_prs_backend\nexos-system\nexos-system-common\src\main\java\com\nexos\software\system\model\Contexto.java
C:\Proyectos\nexus tecnologia\kaz_prs_backend\nexos-system\nexos-system-common\src\main\java\com\nexos\software\system\exception\DataNotFoundException.java
C:\Proyectos\nexus tecnologia\kaz_prs_backend\nexos-system\nexos-system-common\src\main\java\com\nexos\software\system\util\ConstantesUtil.java
C:\Proyectos\nexus tecnologia\kaz_prs_backend\nexos-system\nexos-system-common\src\main\java\com\nexos\software\system\util\DateUtil.java
