com\nexos\software\system\message\PersonaDatosRs.class
com\nexos\software\system\message\LoginRq.class
com\nexos\software\system\message\LoginDatosRs.class
com\nexos\software\system\service\ConfiguracionUtilityService.class
com\nexos\software\system\service\PersistenciaUtilityService.class
com\nexos\software\system\message\UsuarioCrearRq.class
com\nexos\software\system\message\UsuarioObtenerRs.class
com\nexos\software\system\service\ContextoUtilityService.class
com\nexos\software\system\message\UsuarioAutenticarRq.class
com\nexos\software\system\message\LoginRs.class
com\nexos\software\system\message\PersonaNucleoFamiliarRs.class
com\nexos\software\system\service\AuditoriaUtilityService.class
com\nexos\software\system\service\PersonaService.class
